<?xml version="1.0" encoding="UTF-8"?>
<testng-results skipped="0" failed="0" total="3" passed="3">
  <reporter-output>
  </reporter-output>
  <suite name="TestSuite" duration-ms="173395" started-at="2018-01-18T14:02:51Z" finished-at="2018-01-18T14:05:44Z">
    <groups>
    </groups>
    <test name="All tests" duration-ms="173395" started-at="2018-01-18T14:02:51Z" finished-at="2018-01-18T14:05:44Z">
      <class name="Rakuten.TestAutomationTask.tests.LoginTest">
        <test-method status="PASS" signature="initSuite(java.lang.String)[pri:0, instance:Rakuten.TestAutomationTask.tests.LoginTest@62043840]" name="initSuite" is-config="true" duration-ms="16" started-at="2018-01-18T16:02:51Z" finished-at="2018-01-18T16:02:51Z">
          <params>
            <param index="0">
              <value>
                <![CDATA[https://www.rakuten.de]]>
              </value>
            </param>
          </params>
          <reporter-output>
          </reporter-output>
        </test-method> <!-- initSuite -->
        <test-method status="PASS" signature="getDriverForTest(java.lang.String)[pri:0, instance:Rakuten.TestAutomationTask.tests.LoginTest@62043840]" name="getDriverForTest" is-config="true" duration-ms="4912" started-at="2018-01-18T16:02:51Z" finished-at="2018-01-18T16:02:56Z">
          <params>
            <param index="0">
              <value>
                <![CDATA[firefox]]>
              </value>
            </param>
          </params>
          <reporter-output>
          </reporter-output>
        </test-method> <!-- getDriverForTest -->
        <test-method status="PASS" signature="loginWithEmptyUsernamePassword()[pri:0, instance:Rakuten.TestAutomationTask.tests.LoginTest@62043840]" name="loginWithEmptyUsernamePassword" duration-ms="67480" started-at="2018-01-18T16:02:56Z" finished-at="2018-01-18T16:04:03Z">
          <reporter-output>
          </reporter-output>
        </test-method> <!-- loginWithEmptyUsernamePassword -->
        <test-method status="PASS" signature="teardown()[pri:0, instance:Rakuten.TestAutomationTask.tests.LoginTest@62043840]" name="teardown" is-config="true" duration-ms="8313" started-at="2018-01-18T16:04:03Z" finished-at="2018-01-18T16:04:12Z">
          <reporter-output>
          </reporter-output>
        </test-method> <!-- teardown -->
        <test-method status="PASS" signature="getDriverForTest(java.lang.String)[pri:0, instance:Rakuten.TestAutomationTask.tests.LoginTest@62043840]" name="getDriverForTest" is-config="true" duration-ms="2991" started-at="2018-01-18T16:04:12Z" finished-at="2018-01-18T16:04:15Z">
          <params>
            <param index="0">
              <value>
                <![CDATA[firefox]]>
              </value>
            </param>
          </params>
          <reporter-output>
          </reporter-output>
        </test-method> <!-- getDriverForTest -->
        <test-method status="PASS" signature="loginWithInvalidPassword()[pri:0, instance:Rakuten.TestAutomationTask.tests.LoginTest@62043840]" name="loginWithInvalidPassword" duration-ms="48426" started-at="2018-01-18T16:04:15Z" finished-at="2018-01-18T16:05:03Z">
          <reporter-output>
          </reporter-output>
        </test-method> <!-- loginWithInvalidPassword -->
        <test-method status="PASS" signature="teardown()[pri:0, instance:Rakuten.TestAutomationTask.tests.LoginTest@62043840]" name="teardown" is-config="true" duration-ms="1273" started-at="2018-01-18T16:05:03Z" finished-at="2018-01-18T16:05:04Z">
          <reporter-output>
          </reporter-output>
        </test-method> <!-- teardown -->
        <test-method status="PASS" signature="getDriverForTest(java.lang.String)[pri:0, instance:Rakuten.TestAutomationTask.tests.LoginTest@62043840]" name="getDriverForTest" is-config="true" duration-ms="2974" started-at="2018-01-18T16:05:04Z" finished-at="2018-01-18T16:05:07Z">
          <params>
            <param index="0">
              <value>
                <![CDATA[firefox]]>
              </value>
            </param>
          </params>
          <reporter-output>
          </reporter-output>
        </test-method> <!-- getDriverForTest -->
        <test-method status="PASS" signature="loginWithValidCredentials()[pri:0, instance:Rakuten.TestAutomationTask.tests.LoginTest@62043840]" name="loginWithValidCredentials" duration-ms="35432" started-at="2018-01-18T16:05:07Z" finished-at="2018-01-18T16:05:43Z">
          <reporter-output>
          </reporter-output>
        </test-method> <!-- loginWithValidCredentials -->
        <test-method status="PASS" signature="teardown()[pri:0, instance:Rakuten.TestAutomationTask.tests.LoginTest@62043840]" name="teardown" is-config="true" duration-ms="1585" started-at="2018-01-18T16:05:43Z" finished-at="2018-01-18T16:05:44Z">
          <reporter-output>
          </reporter-output>
        </test-method> <!-- teardown -->
      </class> <!-- Rakuten.TestAutomationTask.tests.LoginTest -->
    </test> <!-- All tests -->
  </suite> <!-- TestSuite -->
</testng-results>
